<?xml version="1.0" encoding="UTF-8" standalone="no"?>
<!-- Created with Inkscape (http://www.inkscape.org/) -->

<svg
   xmlns:dc="http://purl.org/dc/elements/1.1/"
   xmlns:cc="http://creativecommons.org/ns#"
   xmlns:rdf="http://www.w3.org/1999/02/22-rdf-syntax-ns#"
   xmlns:svg="http://www.w3.org/2000/svg"
   xmlns="http://www.w3.org/2000/svg"
   xmlns:sodipodi="http://sodipodi.sourceforge.net/DTD/sodipodi-0.dtd"
   xmlns:inkscape="http://www.inkscape.org/namespaces/inkscape"
   inkscape:version="0.48+devel r"
   version="1.1"
   id="svg2"
   height="1000"
   width="1000"
   sodipodi:docname="glyphea.svg"
   viewBox="0 0 1000 1000">
  <sodipodi:namedview
     id="base"
     pagecolor="#ffffff"
     bordercolor="#666666"
     borderopacity="1.0"
     inkscape:pageopacity="0.0"
     inkscape:pageshadow="2"
     inkscape:zoom="0.561"
     inkscape:cx="505.52496"
     inkscape:cy="500"
     inkscape:document-units="px"
     inkscape:current-layer="svg2"
     showgrid="false"
     inkscape:window-width="1366"
     inkscape:window-height="718"
     inkscape:window-x="0"
     inkscape:window-y="27"
     inkscape:window-maximized="1"
     showborder="true"
     inkscape:showpageshadow="false">
    <sodipodi:guide
       id="guide45"
       inkscape:label="baseline"
       position="0,253"
       orientation="0,1" />
    <sodipodi:guide
       id="guide47"
       inkscape:label="ascender"
       position="0,945"
       orientation="0,1" />
    <sodipodi:guide
       id="guide49"
       inkscape:label="caps"
       position="0,896"
       orientation="0,1" />
    <sodipodi:guide
       id="guide51"
       inkscape:label="xheight"
       position="0,729"
       orientation="0,1" />
    <sodipodi:guide
       id="guide53"
       inkscape:label="descender"
       position="0,28"
       orientation="0,1" />
  </sodipodi:namedview>
  <defs
     id="defs4">
    <font
       horiz-adv-x="1024"
       id="font5007"
       inkscape:label="fonte 1">
      <font-face
         units-per-em="1024"
         id="font-face5009"
         font-family="SVGFont 1" />
      <missing-glyph
         d="m 536.21831,626.29251 c -7.22249,2.47428 -17.64657,5.6371 -30.9797,9.69827 -13.09586,4.45181 -29.58949,7.77352 -49.17785,10.18172 -25.59546,3.14672 -45.88373,-1.84067 -62.04515,-14.04692 -15.92277,-11.87629 -28.49964,-28.51195 -37.7915,-49.52716 -9.30625,-20.66647 -15.87707,-44.43302 -19.47848,-70.80383 -3.31982,-26.43968 -4.58509,-52.81185 -3.61399,-79.03343 0.62582,-16.89834 2.79141,-32.31346 6.70291,-46.51034 4.22614,-13.99873 9.72071,-26.2641 16.59974,-36.99822 6.87376,-10.47551 14.79257,-18.96766 23.80112,-25.6972 9.00404,-6.484 18.75121,-10.65743 29.16464,-12.83668 11.45479,-2.39718 23.05847,-2.38373 34.47594,-0.17042 11.76334,2.13648 22.85592,5.81054 32.8936,11.43589 10.34559,5.76915 19.65568,13.08028 27.65317,22.85675 7.99749,9.77647 14.50132,21.40567 19.62574,35.53676 5.0566,14.42135 8.8649,30.83542 11.78216,49.20973 2.91727,18.37432 4.78646,37.5207 5.96631,56.56167 1.10367,19.43202 1.49303,38.19422 1.27427,55.48916 0.0691,17.27298 -0.74226,31.8029 -2.07178,43.30198 z m 110.5143,-373.57478 c -3.5178,4.34159 -6.83319,10.83081 -10.48651,19.06898 -3.33874,8.278 -6.90897,16.79324 -10.93713,26.29791 -3.75414,9.72204 -7.79701,19.65154 -11.93551,30.48352 -4.13851,10.83198 -7.73854,20.76139 -10.09941,28.99192 l -11.86141,41.35164 c -2.64409,-26.22203 -7.80659,-48.74415 -16.89822,-67.82167 -8.77402,-19.08338 -22.09681,-32.94421 -39.70224,-44.57516 -17.62801,-11.44594 -39.36674,-19.90154 -63.93662,-26.87808 -24.21221,-6.80512 -50.74045,-9.96688 -78.35118,-8.24156 -22.30097,1.39352 -42.76014,5.67694 -61.25597,13.79848 -18.49582,8.12155 -34.02185,19.95951 -46.74205,35.98756 -12.39218,16.03954 -21.50981,36.11109 -27.6067,60.13991 -6.08379,24.32753 -8.21396,52.27061 -6.92681,83.85442 1.445,35.4573 7.37623,70.17624 17.00376,104.49914 9.63675,34.63061 23.12509,65.7821 40.15929,93.31478 17.04137,27.85115 37.81069,50.50859 62.71536,67.66679 24.91218,17.4863 54.01808,26.61683 89.45199,25.84285 24.55064,-0.53626 49.86074,-3.5537 76.35904,-8.72584 26.49338,-4.79105 51.52798,-10.64705 74.51341,-17.40162 L 653.41929,436.547 c 9.87383,-62.55151 31.42357,-89.326 43.1782,-112.45535 11.70472,-22.93808 20.72501,-41.91668 29.95106,-60.24018 z"
         id="missing-glyph5011" />
      <glyph
         glyph-name="letrte a"
         id="glyph5016"
         unicode="a"
         d="m 536.21831,626.29251 c -7.22249,2.47428 -17.64657,5.6371 -30.9797,9.69827 -13.09586,4.45181 -29.58949,7.77352 -49.17785,10.18172 -25.59546,3.14672 -45.88373,-1.84067 -62.04515,-14.04692 -15.92277,-11.87629 -28.49964,-28.51195 -37.7915,-49.52716 -9.30625,-20.66647 -15.87707,-44.43302 -19.47848,-70.80383 -3.31982,-26.43968 -4.58509,-52.81185 -3.61399,-79.03343 0.62582,-16.89834 2.79141,-32.31346 6.70291,-46.51034 4.22614,-13.99873 9.72071,-26.2641 16.59974,-36.99822 6.87376,-10.47551 14.79257,-18.96766 23.80112,-25.6972 9.00404,-6.484 18.75121,-10.65743 29.16464,-12.83668 11.45479,-2.39718 23.05847,-2.38373 34.47594,-0.17042 11.76334,2.13648 22.85592,5.81054 32.8936,11.43589 10.34559,5.76915 19.65568,13.08028 27.65317,22.85675 7.99749,9.77647 14.50132,21.40567 19.62574,35.53676 5.0566,14.42135 8.8649,30.83542 11.78216,49.20973 2.91727,18.37432 4.78646,37.5207 5.96631,56.56167 1.10367,19.43202 1.49303,38.19422 1.27427,55.48916 0.0691,17.27298 -0.74226,31.8029 -2.07178,43.30198 z m 110.5143,-373.57478 c -3.5178,4.34159 -6.83319,10.83081 -10.48651,19.06898 -3.33874,8.278 -6.90897,16.79324 -10.93713,26.29791 -3.75414,9.72204 -7.79701,19.65154 -11.93551,30.48352 -4.13851,10.83198 -7.73854,20.76139 -10.09941,28.99192 l -11.86141,41.35164 c -2.64409,-26.22203 -7.80659,-48.74415 -16.89822,-67.82167 -8.77402,-19.08338 -22.09681,-32.94421 -39.70224,-44.57516 -17.62801,-11.44594 -39.36674,-19.90154 -63.93662,-26.87808 -24.21221,-6.80512 -50.74045,-9.96688 -78.35118,-8.24156 -22.30097,1.39352 -42.76014,5.67694 -61.25597,13.79848 -18.49582,8.12155 -34.02185,19.95951 -46.74205,35.98756 -12.39218,16.03954 -21.50981,36.11109 -27.6067,60.13991 -6.08379,24.32753 -8.21396,52.27061 -6.92681,83.85442 1.445,35.4573 7.37623,70.17624 17.00376,104.49914 9.63675,34.63061 23.12509,65.7821 40.15929,93.31478 17.04137,27.85115 37.81069,50.50859 62.71536,67.66679 24.91218,17.4863 54.01808,26.61683 89.45199,25.84285 24.55064,-0.53626 49.86074,-3.5537 76.35904,-8.72584 26.49338,-4.79105 51.52798,-10.64705 74.51341,-17.40162 L 653.41929,436.547 c 9.87383,-62.55151 31.42357,-89.326 43.1782,-112.45535 11.70472,-22.93808 20.72501,-41.91668 29.95106,-60.24018 z" />
    </font>
  </defs>
  <metadata
     id="metadata7">
    <rdf:RDF>
      <cc:Work
         rdf:about="">
        <dc:format>image/svg+xml</dc:format>
        <dc:type
           rdf:resource="http://purl.org/dc/dcmitype/StillImage" />
        <dc:title></dc:title>
      </cc:Work>
    </rdf:RDF>
  </metadata>
  <g
     id="layer1"
     inkscape:groupmode="layer"
     inkscape:label="Layer 1" />
  <g
     style="color:#000000;font-style:normal;font-variant:normal;font-weight:normal;font-stretch:normal;font-size:919.37646484px;line-height:125%;font-family:Andika;-inkscape-font-specification:&quot;Andika, Normal&quot;;text-indent:0;text-align:start;text-decoration:none;text-decoration-line:none;text-decoration-color:currentColor;letter-spacing:normal;word-spacing:normal;text-transform:none;direction:ltr;block-progression:tb;writing-mode:lr-tb;baseline-shift:baseline;text-anchor:start;clip-rule:nonzero;display:inline;overflow:visible;visibility:visible;opacity:1;color-interpolation:sRGB;color-interpolation-filters:linearRGB;fill:#888a85;fill-opacity:1;fill-rule:nonzero;stroke:none;stroke-width:1;stroke-linecap:round;stroke-linejoin:round;stroke-miterlimit:4;stroke-dasharray:none;stroke-dashoffset:0;stroke-opacity:1;marker:none;enable-background:accumulate"
     id="text5003">
    <path
       d="m 536.21831,373.70749 c -7.22249,-2.47428 -17.64657,-5.6371 -30.9797,-9.69827 -13.09586,-4.45181 -29.58949,-7.77352 -49.17785,-10.18172 -25.59546,-3.14672 -45.88373,1.84067 -62.04515,14.04692 -15.92277,11.87629 -28.49964,28.51195 -37.7915,49.52716 -9.30625,20.66647 -15.87707,44.43302 -19.47848,70.80383 -3.31982,26.43968 -4.58509,52.81185 -3.61399,79.03343 0.62582,16.89834 2.79141,32.31346 6.70291,46.51034 4.22614,13.99873 9.72071,26.2641 16.59974,36.99822 6.87376,10.47551 14.79257,18.96766 23.80112,25.6972 9.00404,6.484 18.75121,10.65743 29.16464,12.83668 11.45479,2.39718 23.05847,2.38373 34.47594,0.17042 11.76334,-2.13648 22.85592,-5.81054 32.8936,-11.43589 10.34559,-5.76915 19.65568,-13.08028 27.65317,-22.85675 7.99749,-9.77647 14.50132,-21.40567 19.62574,-35.53676 5.0566,-14.42135 8.8649,-30.83542 11.78216,-49.20973 2.91727,-18.37432 4.78646,-37.5207 5.96631,-56.56167 1.10367,-19.43202 1.49303,-38.19422 1.27427,-55.48916 0.0691,-17.27298 -0.74226,-31.8029 -2.07178,-43.30198 z m 110.5143,373.57478 c -3.5178,-4.34159 -6.83319,-10.83081 -10.48651,-19.06898 -3.33874,-8.278 -6.90897,-16.79324 -10.93713,-26.29791 -3.75414,-9.72204 -7.79701,-19.65154 -11.93551,-30.48352 -4.13851,-10.83198 -7.73854,-20.76139 -10.09941,-28.99192 L 591.41264,601.0883 c -2.64409,26.22203 -7.80659,48.74415 -16.89822,67.82167 -8.77402,19.08338 -22.09681,32.94421 -39.70224,44.57516 -17.62801,11.44594 -39.36674,19.90154 -63.93662,26.87808 -24.21221,6.80512 -50.74045,9.96688 -78.35118,8.24156 -22.30097,-1.39352 -42.76014,-5.67694 -61.25597,-13.79848 -18.49582,-8.12155 -34.02185,-19.95951 -46.74205,-35.98756 -12.39218,-16.03954 -21.50981,-36.11109 -27.6067,-60.13991 -6.08379,-24.32753 -8.21396,-52.27061 -6.92681,-83.85442 1.445,-35.4573 7.37623,-70.17624 17.00376,-104.49914 9.63675,-34.63061 23.12509,-65.7821 40.15929,-93.31478 17.04137,-27.85115 37.81069,-50.50859 62.71536,-67.66679 24.91218,-17.4863 54.01808,-26.61683 89.45199,-25.84285 24.55064,0.53626 49.86074,3.5537 76.35904,8.72584 26.49338,4.79105 51.52798,10.64705 74.51341,17.40162 l 43.22359,273.8247 c 9.87383,62.55151 31.42357,89.326 43.1782,112.45535 11.70472,22.93808 20.72501,41.91668 29.95106,60.24018 z"
       id="path5014"
       inkscape:connector-curvature="0"
       sodipodi:nodetypes="ccscccscccsccscsccsccccssccccssccscccsccsccc" />
  </g>
</svg>
