<?xml version="1.0" encoding="UTF-8" standalone="no"?>
<svg xmlns:rdf="http://www.w3.org/1999/02/22-rdf-syntax-ns#" xmlns="http://www.w3.org/2000/svg" version="1.1" xmlns:cc="http://creativecommons.org/ns#" viewBox="0 0 24.005186 24" xmlns:dc="http://purl.org/dc/elements/1.1/">
<metadata>
<rdf:RDF>
<cc:Work rdf:about="">
<dc:format>image/svg+xml</dc:format>
<dc:type rdf:resource="http://purl.org/dc/dcmitype/StillImage"/>
</cc:Work>
</rdf:RDF>
</metadata>
<g transform="translate(-1174.9948 -140)">
<path d="m1186.5 140.5008v22.9992" stroke="#c80000" stroke-linecap="square" stroke-width="1.0000004" fill="none"/>
<path stroke-linejoin="round" d="m1175.5 140.5c3 3.5 18.975 1.5988 17.5 7.5-1 4-17 1-17.5 8.5-0.366 5.4878 17 2.5 23 6.5" stroke="#969696" stroke-linecap="round" stroke-miterlimit="0" fill="none"/>
<rect stroke-linejoin="round" style="color:#000000" fill-rule="evenodd" height="4.007167" width="4.066208" stroke="#00f" stroke-linecap="round" stroke-miterlimit="0" y="141.5" x="1184.5" stroke-width=".9999997" fill="#8ab3de"/>
<rect stroke-linejoin="round" style="color:#000000" fill-rule="evenodd" transform="translate(.0188999 6.991948)" height="4.007167" width="4.066208" stroke="#00f" stroke-linecap="round" stroke-miterlimit="0" y="141.5" x="1184.5" stroke-width=".9999997" fill="#8ab3de"/>
<rect stroke-linejoin="round" style="color:#000000" fill-rule="evenodd" transform="translate(-.0473082 16.99195)" height="4.007167" width="4.066208" stroke="#00f" stroke-linecap="round" stroke-miterlimit="0" y="141.5" x="1184.5" stroke-width=".9999997" fill="#8ab3de"/>
</g>
</svg>
