<?xml version="1.0" encoding="UTF-8" standalone="no"?>
<svg xmlns:rdf="http://www.w3.org/1999/02/22-rdf-syntax-ns#" xmlns="http://www.w3.org/2000/svg" version="1.1" xmlns:cc="http://creativecommons.org/ns#" viewBox="0 0 24 24" xmlns:dc="http://purl.org/dc/elements/1.1/">
<metadata>
<rdf:RDF>
<cc:Work rdf:about="">
<dc:format>image/svg+xml</dc:format>
<dc:type rdf:resource="http://purl.org/dc/dcmitype/StillImage"/>
</cc:Work>
</rdf:RDF>
</metadata>
<defs>
<marker id="a" refY="0" refX="0" orient="auto">
<path d="m0 0v-2l3 2-3 2z"/>
</marker>
</defs>
<g marker-end="url(#a)" stroke="#000" fill="none">
<path d="m3.5 2.5 5 5"/>
<path d="m20.5 2.5-5 5"/>
<path d="m12 11.5v4.5"/>
</g>
<g stroke="#00f" fill="#8ab3de">
<circle cx="3.5" cy="2.5" r="2"/>
<circle cx="20.5" cy="2.5" r="2"/>
<circle cx="12" cy="11.5" r="2"/>
<circle cx="12" cy="21.5" r="2"/>
</g>
</svg>
