<?xml version="1.0" encoding="UTF-8" standalone="no"?>
<svg xmlns:rdf="http://www.w3.org/1999/02/22-rdf-syntax-ns#" xmlns="http://www.w3.org/2000/svg" version="1.1" xmlns:cc="http://creativecommons.org/ns#" viewBox="0 0 13.031294 15.121222" xmlns:dc="http://purl.org/dc/elements/1.1/">
<metadata>
<rdf:RDF>
<cc:Work rdf:about="">
<dc:format>image/svg+xml</dc:format>
<dc:type rdf:resource="http://purl.org/dc/dcmitype/StillImage"/>
</cc:Work>
</rdf:RDF>
</metadata>
<g stroke-linejoin="round" stroke-linecap="round" stroke-miterlimit="0" transform="rotate(64.5595,410.95101,-482.96413)" fill="none">
<path d="m672.4285 92.87286 14.7066-3.2674" stroke-opacity=".7254902" stroke="#da0000"/>
<path d="m673.2681 96.33213 14.7067-3.26741" stroke="#5a5a5a"/>
</g>
</svg>
