<?xml version="1.0" encoding="UTF-8" standalone="no"?>
<svg xmlns:rdf="http://www.w3.org/1999/02/22-rdf-syntax-ns#" xmlns="http://www.w3.org/2000/svg" version="1.1" xmlns:cc="http://creativecommons.org/ns#" xmlns:xlink="http://www.w3.org/1999/xlink" viewBox="0 0 16.01849 15.938621" xmlns:dc="http://purl.org/dc/elements/1.1/">
<metadata>
<rdf:RDF>
<cc:Work rdf:about="">
<dc:format>image/svg+xml</dc:format>
<dc:type rdf:resource="http://purl.org/dc/dcmitype/StillImage"/>
</cc:Work>
</rdf:RDF>
</metadata>
<defs>
<linearGradient id="a" y2="25.59215" gradientUnits="userSpaceOnUse" x2="283.1054" y1="22.03839" x1="279.645">
<stop stop-color="#5a5a5a" offset="0"/>
<stop offset="1"/>
</linearGradient>
<linearGradient id="b" y2="21.16041" gradientUnits="userSpaceOnUse" x2="279.4786" y1="25.25768" x1="283.9804">
<stop stop-color="#8ab3df" offset="0"/>
<stop stop-color="#fff" offset="1"/>
</linearGradient>
</defs>
<g transform="matrix(1.00075 0 0 .9928055 -55.0362 -24.790308)">
<g transform="matrix(.723037 0 0 .675336 -257.1363 -6.948167)">
<path fill-rule="evenodd" fill="#fac32d" d="m432.5759 60.78928 7.4384-7.40458v3.70228l8.7686-0.06783v13.3074l-3.2294-0.07147v-6.69255h-6.9417v2.97447l-6.0359-5.74772z"/>
<path stroke-linejoin="bevel" d="m432.558 61.52785 6.5857-7.0356" fill-rule="evenodd" stroke="#efe7c1" stroke-width="1.4336616" fill="#efe4b6"/>
<path d="m442.9108 70.25823c2.7212-0.09493 2.688 0.06832 2.688 0.06832l-0.0769-6.76402c0-1.48723 0-1.48723-2.0731-1.48723l-9.7522-0.10996 5.4727 5.97978v-3.48047s1.1954 0.02985 2.4359 0.02985c2.4809 0 1.3056 2.786 1.3056 5.76373z" fill-rule="evenodd" stroke-width="1px" fill="#ca8f0b"/>
<path stroke-linejoin="round" d="m432.3932 60.65307 6.9304-7.40302v3.64609s7.1663-0.04884 9.6663-0.04884c0 0 0.0332 0.15255 0.0332 13.47925 0 0-4.4694 0.02076-5.5683 0l0.003-5.97162h-4.1492l0.0151 3.89512-6.9304-7.59698z" stroke="#000" stroke-width="1.3971461" fill="none"/>
</g>
<g transform="translate(-254.4684,4.926264)" fill-rule="evenodd">
<path stroke-linejoin="round" style="color:#000000" d="m284 23a3 3 0 1 1 -6 0 3 3 0 1 1 6 0z" transform="matrix(1.331759,0,0,1.327869,-53.22381,-6.040984)" stroke="url(#a)" stroke-linecap="round" stroke-miterlimit="0" stroke-width=".7119799" fill="url(#b)"/>
<path style="color:#000000" d="m320.4594 22.00781 1-1v4h-1v-3z"/>
<path style="color:#000000" d="m319.4609 24.02096h2v1h-3l1-1z"/>
</g>
</g>
</svg>
