<?xml version="1.0" encoding="UTF-8" standalone="no"?>
<svg xmlns:rdf="http://www.w3.org/1999/02/22-rdf-syntax-ns#" xmlns="http://www.w3.org/2000/svg" version="1.1" xmlns:cc="http://creativecommons.org/ns#" xmlns:xlink="http://www.w3.org/1999/xlink" viewBox="0 0 24 24" xmlns:dc="http://purl.org/dc/elements/1.1/">
<metadata>
<rdf:RDF>
<cc:Work rdf:about="">
<dc:format>image/svg+xml</dc:format>
<dc:type rdf:resource="http://purl.org/dc/dcmitype/StillImage"/>
</cc:Work>
</rdf:RDF>
</metadata>
<defs>
<linearGradient id="a" y2="218.8026" xlink:href="#d" gradientUnits="userSpaceOnUse" x2="17.49814" gradientTransform="matrix(.9834125 0 0 1.562975 -12.92154 707.8904)" y1="214.5411" x1="15.64649"/>
<linearGradient id="e">
<stop stop-color="#8ab3df" offset="0"/>
<stop stop-color="#fff" offset="1"/>
</linearGradient>
<linearGradient id="f">
<stop stop-color="#5a5a5a" offset="0"/>
<stop offset="1"/>
</linearGradient>
<linearGradient id="b" y2="218.8141" xlink:href="#e" gradientUnits="userSpaceOnUse" x2="21.32992" gradientTransform="matrix(1.306645,0,0,2.608597,-18.88425,480.9675)" y1="214.8097" x1="16.3967"/>
<linearGradient id="c" y2="211.605" xlink:href="#f" gradientUnits="userSpaceOnUse" x2="18.58443" gradientTransform="matrix(1.209494,0,0,1.382055,-12.2469,758.2004)" y1="205.4478" x1="11.87961"/>
<linearGradient id="d">
<stop stop-color="#fff" offset="0"/>
<stop stop-color="#98b6d3" offset="1"/>
</linearGradient>
</defs>
<g transform="translate(-1105.989 -217.9579)">
<rect opacity="0" height="24" width="24" y="217.9579" x="1105.989"/>
<g stroke-linejoin="round" stroke-miterlimit="0" transform="translate(1106.989,-822.8055)">
<rect height="9.673169" width="9.674352" stroke="url(#c)" y="1042.226" x=".462824" stroke-width=".925648" fill="none"/>
<rect fill-rule="evenodd" height="7.835659" width="7.840812" stroke="url(#a)" stroke-linecap="round" y="1043.145" x="1.379594" fill="url(#b)"/>
</g>
<g stroke-linejoin="round" stroke-miterlimit="0" transform="translate(1119.244,-812.1375)">
<rect height="9.673169" width="9.674352" stroke="url(#c)" y="1042.226" x=".462824" stroke-width=".925648" fill="none"/>
<rect fill-rule="evenodd" height="7.835659" width="7.840812" stroke="url(#a)" stroke-linecap="round" y="1043.145" x="1.379594" fill="url(#b)"/>
</g>
<g fill="#ff0" transform="matrix(-1.5,0,0,-1.5,1679.065,1036.244)">
<path fill-rule="evenodd" fill="#000" d="m373.1989 533.2837v0.7h3l1.1645 1v2.5154h-1.2973l1.6269 1.9968 1.6838-1.9968h-1.2954v-2.782l-1.6826-1.4334h-3.1999z"/>
</g>
<g fill="#ff0" transform="matrix(1.5,0,0,1.5,556.9348,-576.9256)">
<path fill-rule="evenodd" fill="#000" d="m373.1989 533.2837v0.7h3l1.1645 1v2.5154h-1.2973l1.6269 1.9968 1.6838-1.9968h-1.2954v-2.782l-1.6826-1.4334h-3.1999z"/>
</g>
</g>
</svg>
