<?xml version="1.0" encoding="UTF-8" standalone="no"?>
<svg xmlns:rdf="http://www.w3.org/1999/02/22-rdf-syntax-ns#" xmlns="http://www.w3.org/2000/svg" version="1.1" xmlns:cc="http://creativecommons.org/ns#" xmlns:xlink="http://www.w3.org/1999/xlink" viewBox="0 0 24 24" xmlns:dc="http://purl.org/dc/elements/1.1/">
<metadata>
<rdf:RDF>
<cc:Work rdf:about="">
<dc:format>image/svg+xml</dc:format>
<dc:type rdf:resource="http://purl.org/dc/dcmitype/StillImage"/>
</cc:Work>
</rdf:RDF>
</metadata>
<defs>
<linearGradient id="d" y2="218.8026" xlink:href="#g" gradientUnits="userSpaceOnUse" x2="17.49814" gradientTransform="matrix(.9834125 0 0 1.562975 -12.92154 707.8904)" y1="214.5411" x1="15.64649"/>
<linearGradient id="e" y2="181.9908" xlink:href="#a" gradientUnits="userSpaceOnUse" x2="-29.00001" gradientTransform="matrix(1.592997,0,0,1,11.72818,4)" y1="181.9908" x1="-37.50076"/>
<linearGradient id="g">
<stop stop-color="#fff" offset="0"/>
<stop stop-color="#98b6d3" offset="1"/>
</linearGradient>
<linearGradient id="c" y2="211.605" xlink:href="#a" gradientUnits="userSpaceOnUse" x2="18.58443" gradientTransform="matrix(1.209494,0,0,1.382055,-12.2469,758.2004)" y1="205.4478" x1="11.87961"/>
<linearGradient id="b" y2="218.8141" xlink:href="#h" gradientUnits="userSpaceOnUse" x2="21.32992" gradientTransform="matrix(1.306645,0,0,2.608597,-18.88425,480.9675)" y1="214.8097" x1="16.3967"/>
<linearGradient id="f" y2="175.9908" xlink:href="#a" gradientUnits="userSpaceOnUse" x2="-29.01316" gradientTransform="translate(-8.989043)" y1="175.9908" x1="-37.77876"/>
<linearGradient id="a">
<stop stop-color="#5a5a5a" offset="0"/>
<stop offset="1"/>
</linearGradient>
<linearGradient id="h">
<stop stop-color="#8ab3df" offset="0"/>
<stop stop-color="#fff" offset="1"/>
</linearGradient>
</defs>
<g transform="translate(-1106 -244)">
<rect opacity="0" height="24" width="24" y="244" x="1106"/>
<g stroke-linejoin="round" stroke-miterlimit="0" transform="matrix(.8490566 0 0 .8490566 1107 -639.5161)">
<rect height="9.673169" width="9.674352" stroke="url(#c)" y="1042.226" x=".462824" stroke-width=".925648" fill="none"/>
<rect fill-rule="evenodd" height="7.835659" width="7.840812" stroke="url(#d)" stroke-linecap="round" y="1043.145" x="1.379594" fill="url(#b)"/>
</g>
<g stroke-linejoin="round" stroke-miterlimit="0" transform="matrix(.8490566 0 0 .8490566 1120 -632.5151)">
<rect height="9.673169" width="9.674352" stroke="url(#c)" y="1042.226" x=".462824" stroke-width=".925648" fill="none"/>
<rect fill-rule="evenodd" height="7.835659" width="7.840812" stroke="url(#d)" stroke-linecap="round" y="1043.145" x="1.379594" fill="url(#b)"/>
</g>
<g fill="#ff0" transform="matrix(-1.214009,0,0,-1.214009,1572.567,906.4111)">
<path fill-rule="evenodd" fill="#000" d="m372.8308 534.9312v0.7h5.0155l1.1646 1v0.8679h-1.2973l1.6268 1.9968 1.6838-1.9968h-1.2953v-1.1346l-1.6827-1.4333h-5.2154z"/>
</g>
<g fill="#ff0" transform="matrix(1.214009,0,0,1.214009,661.8316,-398.1738)">
<path fill-rule="evenodd" fill="#000" d="m373.9715 533.0883v0.7h5.606l1.1646 1v0.8679h-1.2973l1.6268 1.9968 1.6838-1.9968h-1.2953v-1.1346l-1.6827-1.4333h-5.8059z"/>
</g>
<path stroke-linejoin="round" d="m-43.97588 175.9908h4.97368" transform="translate(1155.035 83.0092)" stroke="url(#f)" stroke-linecap="round" stroke-miterlimit="0" stroke-width="1.9999999" fill="none"/>
<path stroke-linejoin="round" d="m-44.00221 185.9908h7.94048" transform="translate(1152.062 76.0092)" stroke="url(#e)" stroke-linecap="round" stroke-miterlimit="0" stroke-width="2" fill="none"/>
<path stroke-linejoin="round" d="m-44.00221 185.9908h7.94048" transform="translate(1155.062 79.0092)" stroke="url(#e)" stroke-linecap="round" stroke-miterlimit="0" stroke-width="2" fill="none"/>
<path fill-rule="evenodd" fill="#c80000" d="m1116.127 258h-0.936v5.4545h-1.873l2.256 2.5524 2.426-2.5524h-1.873v-5.4545z"/>
<path fill-rule="evenodd" fill="#c80000" d="m1112.236 266h-0.882v-2.9358-2.5187h-1.763l2.373-2.3834 2.036 2.3834h-1.764v5.4545z"/>
</g>
</svg>
