<?xml version="1.0" encoding="UTF-8" standalone="no"?>
<svg xmlns:rdf="http://www.w3.org/1999/02/22-rdf-syntax-ns#" xmlns="http://www.w3.org/2000/svg" version="1.1" xmlns:cc="http://creativecommons.org/ns#" viewBox="0 0 20.000206 20" xmlns:dc="http://purl.org/dc/elements/1.1/">
<metadata>
<rdf:RDF>
<cc:Work rdf:about="">
<dc:format>image/svg+xml</dc:format>
<dc:type rdf:resource="http://purl.org/dc/dcmitype/StillImage"/>
</cc:Work>
</rdf:RDF>
</metadata>
<path d="m1105 339c10.397 0 12.885-20 6.421-20-6.548 0-16.843 16.0032-6.384 16.0032 10.326 0 0.09-16.0032-6.432-16.0032-6.523 0-4.185 20 6.395 20z" fill-rule="evenodd" transform="translate(-1094.9721,-319)"/>
</svg>
