<?xml version="1.0" encoding="UTF-8" standalone="no"?>
<svg xmlns:rdf="http://www.w3.org/1999/02/22-rdf-syntax-ns#" xmlns="http://www.w3.org/2000/svg" version="1.1" xmlns:cc="http://creativecommons.org/ns#" xmlns:xlink="http://www.w3.org/1999/xlink" viewBox="0 0 16.002852 16" xmlns:dc="http://purl.org/dc/elements/1.1/">
<metadata>
<rdf:RDF>
<cc:Work rdf:about="">
<dc:format>image/svg+xml</dc:format>
<dc:type rdf:resource="http://purl.org/dc/dcmitype/StillImage"/>
</cc:Work>
</rdf:RDF>
</metadata>
<defs>
<linearGradient id="g" y2="254.2391" xlink:href="#b" gradientUnits="userSpaceOnUse" x2="359.6935" gradientTransform="matrix(.81842 0 0 .200075 254.0602 -14.15959)" y1="269.269" x1="368.9123"/>
<linearGradient id="e" y2="31.66687" xlink:href="#a" gradientUnits="userSpaceOnUse" x2="346" gradientTransform="translate(209.9854 .409827)" y1="29.13977" x1="344"/>
<linearGradient id="f" y2="259.7575" xlink:href="#b" gradientUnits="userSpaceOnUse" x2="360.5774" gradientTransform="matrix(.181871 0 0 .200075 474.8909 -14.15959)" y1="265.3882" x1="366.4836"/>
<linearGradient id="b">
<stop stop-color="#fff" offset="0"/>
<stop stop-color="#aaa" offset="1"/>
</linearGradient>
<linearGradient id="i" y2="38.28079" xlink:href="#a" gradientUnits="userSpaceOnUse" x2="333.0172" gradientTransform="translate(209.9854 .409827)" y1="34.56033" x1="330.3861"/>
<linearGradient id="d" y2="260.2477" xlink:href="#b" gradientUnits="userSpaceOnUse" x2="361.7339" gradientTransform="matrix(.455219 0 0 .501233 377.5466 -100.7998)" y1="264.553" x1="365.2316"/>
<linearGradient id="h" y2="39.12316" xlink:href="#a" gradientUnits="userSpaceOnUse" x2="339.5418" gradientTransform="translate(209.9854 .409827)" y1="33.54247" x1="335.4563"/>
<linearGradient id="c" y2="32.71318" xlink:href="#a" gradientUnits="userSpaceOnUse" x2="544.95" gradientTransform="matrix(.997993 0 0 .99958 1.061475 -.0495296)" y1="27.95536" x1="542.1904"/>
<linearGradient id="a">
<stop stop-color="#5a5a5a" offset="0"/>
<stop offset="1"/>
</linearGradient>
</defs>
<g transform="translate(-539.98256,-25.40983)">
<path stroke-linejoin="round" d="m540.4854 35.90983h3v5h-3" stroke="url(#i)" stroke-linecap="square" stroke-width="1px" fill="none"/>
<path d="m546.4854 38.90983v-2h9" stroke="#dcdcdc" stroke-linecap="square" stroke-width="1px" fill="none"/>
<path stroke-linejoin="round" d="m555.4854 35.90983h-10v5h10" stroke="url(#h)" stroke-linecap="square" stroke-width="1px" fill="none"/>
<path d="m540.4854 39.90983h2v-2" stroke="#aaa" stroke-linecap="square" stroke-width="1px" fill="none"/>
<g transform="translate(7.00294 .505247)">
<rect stroke-linejoin="round" style="color:#000000" fill-rule="evenodd" height="5.010485" width="5.005956" stroke="url(#c)" stroke-linecap="round" stroke-miterlimit="0" y="28.39409" x="540.4766" stroke-width="1.000001" fill="url(#d)"/>
<path d="m541.4795 32.39934h3v-2" stroke="#aaa" stroke-linecap="square" stroke-width="1px" fill="none"/>
<path d="m544.4795 29.39934h-3v2" stroke="#dcdcdc" stroke-linecap="square" stroke-width="1px" fill="none"/>
</g>
<rect style="color:#000000" fill-rule="evenodd" height="2" width="9" y="37.40983" x="546.9854" stroke-width="1.0000006" fill="url(#g)"/>
<rect style="color:#000000" fill-rule="evenodd" height="2" width="2" y="37.40983" x="539.9854" stroke-width="1.0000006" fill="url(#f)"/>
<g transform="translate(.005938 .510486)">
<rect stroke-linejoin="round" style="color:#000000" fill-rule="evenodd" height="5.010485" width="5.005956" stroke="url(#c)" stroke-linecap="round" stroke-miterlimit="0" y="28.39409" x="540.4766" stroke-width="1.000001" fill="url(#d)"/>
<path d="m541.4795 32.39934h3v-2" stroke="#aaa" stroke-linecap="square" stroke-width="1px" fill="none"/>
<path d="m544.4795 29.39934h-3v2" stroke="#dcdcdc" stroke-linecap="square" stroke-width="1px" fill="none"/>
</g>
<path d="m541.4854 37.90983h8v-6" stroke="#c80000" stroke-linecap="square" stroke-width="1px" fill="none"/>
<path stroke-linejoin="round" d="m540.4854 26.90983h2v-1" stroke="#000" stroke-linecap="square" stroke-width="1px" fill="none"/>
<path d="m540.4854 25.90983h1" stroke="#aaa" stroke-linecap="square" stroke-width="1px" fill="none"/>
<path d="m545.4854 25.90983h3" stroke="#aaa" stroke-linecap="square" stroke-width="1px" fill="none"/>
<path stroke-linejoin="round" d="m544.4854 25.90983v1h5v-1" stroke="#000" stroke-linecap="square" stroke-width="1px" fill="none"/>
<path stroke-linejoin="round" d="m551.4854 25.90983v1h4" stroke="#000" stroke-linecap="square" stroke-width="1px" fill="none"/>
<path d="m545.4854 25.90983h3" stroke="#aaa" stroke-linecap="square" stroke-width="1px" fill="none"/>
<path d="m540.4854 36.90983h2" stroke="#dcdcdc" stroke-linecap="square" stroke-width="1px" fill="none"/>
<path stroke-linejoin="round" d="m555.4854 28.90983h-1v5h1" stroke="url(#e)" stroke-linecap="square" stroke-width="1px" fill="none"/>
<path d="m555.4854 29.90983v2" fill-rule="evenodd" stroke="#dcdcdc" stroke-linecap="square" stroke-width="1px" fill="#fff"/>
<path d="m555.4854 32.40983v1" stroke="#aaa" stroke-width="1px" fill="none"/>
<path d="m546.4854 39.90983h9" stroke="#aaa" stroke-linecap="square" stroke-width="1px" fill="none"/>
</g>
</svg>
