<?xml version="1.0" encoding="UTF-8" standalone="no"?>
<svg xmlns:rdf="http://www.w3.org/1999/02/22-rdf-syntax-ns#" xmlns="http://www.w3.org/2000/svg" version="1.1" xmlns:cc="http://creativecommons.org/ns#" viewBox="0 0 16 16" xmlns:dc="http://purl.org/dc/elements/1.1/">
<metadata>
<rdf:RDF>
<cc:Work rdf:about="">
<dc:format>image/svg+xml</dc:format>
<dc:type rdf:resource="http://purl.org/dc/dcmitype/StillImage"/>
</cc:Work>
</rdf:RDF>
</metadata>
<g transform="translate(45,-175)">
<rect height="16" width="16" y="175" x="-45" fill="none"/>
<rect height="4.069275" width="4.069275" y="176.8167" x="-42.99393" fill="#ccc"/>
<rect transform="scale(-1,1)" height="4.069275" width="4.069275" y="176.8167" x="34.85538" fill="#999"/>
<rect height="4.069275" width="4.069275" y="176.8167" x="-34.85538" fill="#ccc"/>
<rect transform="scale(1,-1)" height="4.069275" width="4.069275" y="-184.9553" x="-42.99393" fill="#999"/>
<rect transform="scale(-1)" height="4.069275" width="4.069275" y="-184.9553" x="34.85538"/>
<rect transform="scale(1,-1)" height="4.069275" width="4.069275" y="-184.9553" x="-34.85538" fill="#999"/>
<rect height="4.069275" width="4.069275" y="184.9553" x="-42.99393" fill="#ccc"/>
<rect transform="scale(-1,1)" height="4.069275" width="4.069275" y="184.9553" x="34.85538" fill="#999"/>
<rect height="4.069275" width="4.069275" y="184.9553" x="-34.85538" fill="#ccc"/>
</g>
</svg>
