<?xml version="1.0" encoding="UTF-8" standalone="no"?>
<svg xmlns:rdf="http://www.w3.org/1999/02/22-rdf-syntax-ns#" xmlns="http://www.w3.org/2000/svg" version="1.1" xmlns:cc="http://creativecommons.org/ns#" viewBox="0 0 19.257412 16.760713" xmlns:dc="http://purl.org/dc/elements/1.1/">
<metadata>
<rdf:RDF>
<cc:Work rdf:about="">
<dc:format>image/svg+xml</dc:format>
<dc:type rdf:resource="http://purl.org/dc/dcmitype/StillImage"/>
</cc:Work>
</rdf:RDF>
</metadata>
<g transform="matrix(.6666666 0 0 .6666666 73.33333 -119.99999)">
<rect style="color:#000000" height="24" width="24" y="180" x="-110" fill="none"/>
<path stroke-linejoin="round" d="m-83.37415 197.5433h-20.67835v-7.8541h8.84746v13.6806h5.91443v-19.3232" stroke="#646464" stroke-linecap="round" stroke-width="2.2500002" fill="none"/>
<rect stroke-linejoin="round" style="color:#000000" fill-rule="evenodd" fill-opacity=".3921569" height="2.996397" width="2.995161" stroke="#6464ff" stroke-linecap="round" stroke-miterlimit="0" y="196.0672" x="-84.48362" stroke-width=".7491586" fill="#6464ff"/>
<rect stroke-linejoin="round" style="color:#000000" fill-rule="evenodd" fill-opacity=".3921569" height="2.996397" width="2.995161" stroke="#6464ff" stroke-linecap="round" stroke-miterlimit="0" y="182.1676" x="-90.81646" stroke-width=".7491586" fill="#6464ff"/>
<rect stroke-linejoin="round" style="color:#000000" fill-rule="evenodd" fill-opacity=".3921569" height="2.996397" width="2.995161" stroke="#6464ff" stroke-linecap="round" stroke-miterlimit="0" y="188.1577" x="-96.73253" stroke-width=".7491586" fill="#6464ff"/>
<rect stroke-linejoin="round" style="color:#000000" fill-rule="evenodd" fill-opacity=".3921569" height="2.996397" width="2.995161" stroke="#6464ff" stroke-linecap="round" stroke-miterlimit="0" y="188.1577" x="-105.581" stroke-width=".7491586" fill="#6464ff"/>
<rect stroke-linejoin="round" style="color:#000000" fill-rule="evenodd" fill-opacity=".3921569" height="2.996397" width="2.995161" stroke="#6464ff" stroke-linecap="round" stroke-miterlimit="0" y="196.0672" x="-105.581" stroke-width=".7491586" fill="#6464ff"/>
<rect stroke-linejoin="round" style="color:#000000" fill-rule="evenodd" fill-opacity=".3921569" height="2.996397" width="2.995161" stroke="#6464ff" stroke-linecap="round" stroke-miterlimit="0" y="201.7701" x="-96.73253" stroke-width=".7491586" fill="#6464ff"/>
<rect stroke-linejoin="round" style="color:#000000" fill-rule="evenodd" fill-opacity=".3921569" height="2.996397" width="2.995161" stroke="#6464ff" stroke-linecap="round" stroke-miterlimit="0" y="201.7701" x="-90.81646" stroke-width=".7491586" fill="#6464ff"/>
</g>
</svg>
