<?xml version="1.0" encoding="UTF-8" standalone="no"?>
<svg xmlns:rdf="http://www.w3.org/1999/02/22-rdf-syntax-ns#" xmlns="http://www.w3.org/2000/svg" version="1.1" xmlns:cc="http://creativecommons.org/ns#" viewBox="0 0 16.00967 15.96088" xmlns:dc="http://purl.org/dc/elements/1.1/">
<metadata>
<rdf:RDF>
<cc:Work rdf:about="">
<dc:format>image/svg+xml</dc:format>
<dc:type rdf:resource="http://purl.org/dc/dcmitype/StillImage"/>
</cc:Work>
</rdf:RDF>
</metadata>
<g stroke-linejoin="round" stroke-miterlimit="0" transform="translate(-314.90643,-209)">
<path style="color:#000000" d="m235.5312 170.5312v9.9688h10.0938l-0.0938-4.0625c-0.1736 0.0165-0.322 0.0937-0.5 0.0937-3.036 0-5.4999-2.4639-5.5-5.5 0-0.1779 0.0773-0.3263 0.0938-0.5h-4.0938z" fill-rule="evenodd" fill-opacity=".7019608" transform="translate(79.87523,43.96088)" stroke="#000" stroke-width="1.0000002" fill="#99b7d6"/>
<path style="color:#000000" d="m224 155.5c0-3.036 2.464-5.5 5.5-5.5s5.5 2.464 5.5 5.5-2.464 5.5-5.5 5.5" transform="translate(95.4161,59.5)" stroke="#c80000" stroke-dasharray="1, 1" fill="none"/>
<path style="color:#000000" d="m319.469 214.4609c-0.0166 0.1736-0.0938 0.322-0.0938 0.5 0 3.036 2.464 5.5 5.5 5.5 0.178 0 0.3264-0.0772 0.5-0.0938v-5.9062h-5.9062z" fill-rule="evenodd" fill-opacity=".7019608" stroke="#000" stroke-width="1.0000002" fill="#99b7d6"/>
</g>
</svg>
