<?xml version="1.0" encoding="UTF-8" standalone="no"?>
<svg xmlns:rdf="http://www.w3.org/1999/02/22-rdf-syntax-ns#" xmlns="http://www.w3.org/2000/svg" version="1.1" xmlns:cc="http://creativecommons.org/ns#" viewBox="0 0 15.999993 16" xmlns:dc="http://purl.org/dc/elements/1.1/">
<metadata>
<rdf:RDF>
<cc:Work rdf:about="">
<dc:format>image/svg+xml</dc:format>
<dc:type rdf:resource="http://purl.org/dc/dcmitype/StillImage"/>
</cc:Work>
</rdf:RDF>
</metadata>
<g stroke-linejoin="round" stroke-miterlimit="0" transform="translate(-314.91611,-209)">
<rect style="color:#000000" stroke-dasharray="1, 1" stroke-dashoffset=".5" height="10" width="10" stroke="#c80000" y="214.5" x="315.4161" fill="none"/>
<path style="color:#000000" d="m224 155.5c0-3.036 2.464-5.5 5.5-5.5s5.5 2.464 5.5 5.5-2.464 5.5-5.5 5.5" transform="translate(95.4161,59.5)" stroke="#c80000" stroke-dasharray="1, 1" fill="none"/>
<path style="color:#000000" d="m204.5937 175.5c-0.0165 0.1736-0.0937 0.3221-0.0937 0.5 0 3.036 2.464 5.5 5.5 5.5 0.1779 0 0.3264-0.0772 0.5-0.0938v-5.9062h-5.9063z" fill-rule="evenodd" fill-opacity=".7019608" transform="translate(114.9161,39)" stroke="#000" stroke-width="1.0000002" fill="#99b7d6"/>
</g>
</svg>
