<?xml version="1.0" encoding="UTF-8" standalone="no"?>
<svg xmlns:rdf="http://www.w3.org/1999/02/22-rdf-syntax-ns#" xmlns="http://www.w3.org/2000/svg" version="1.1" xmlns:cc="http://creativecommons.org/ns#" xmlns:xlink="http://www.w3.org/1999/xlink" viewBox="0 0 16.006859 16.006948" xmlns:dc="http://purl.org/dc/elements/1.1/">
<metadata>
<rdf:RDF>
<cc:Work rdf:about="">
<dc:format>image/svg+xml</dc:format>
<dc:type rdf:resource="http://purl.org/dc/dcmitype/StillImage"/>
</cc:Work>
</rdf:RDF>
</metadata>
<defs>
<linearGradient id="d" y2="350.1636" xlink:href="#a" gradientUnits="userSpaceOnUse" x2="130.3522" gradientTransform="matrix(.533827 0 0 .532126 226.8053 -40.17395)" y1="343.258" x1="121.1177"/>
<linearGradient id="a">
<stop stop-color="#fffdf8" offset="0"/>
<stop stop-color="#cdccc7" offset="1"/>
</linearGradient>
<linearGradient id="b" y2="215.9465" xlink:href="#c" gradientUnits="userSpaceOnUse" x2="143.2251" gradientTransform="translate(158,-105)" y1="214.8174" x1="148"/>
<linearGradient id="e" y2="350.1636" xlink:href="#a" gradientUnits="userSpaceOnUse" x2="130.3522" gradientTransform="matrix(.735355 0 0 .733012 215.5241 -110.6465)" y1="343.258" x1="121.1177"/>
<linearGradient id="c">
<stop offset="0"/>
<stop stop-color="#7f7f7f" offset=".35076979"/>
<stop stop-color="#bfbfbf" offset=".59668732"/>
<stop stop-color="#dfdfdf" offset=".78382427"/>
<stop stop-color="#fff" offset="1"/>
</linearGradient>
</defs>
<g transform="translate(-280.99312,-130.99301)" fill-rule="evenodd">
<g transform="matrix(.725945 0 0 .725944 63.34671 33.14915)">
<rect stroke-linejoin="round" style="color:#000000" height="11.02972" width="11.02971" stroke="#000" stroke-linecap="round" y="135.4703" x="300.4999" stroke-width="1.3775157" fill="url(#e)"/>
<g transform="matrix(.5 0 0 .5 153 87)">
<path d="m302 115 2-2v-11h-3l-2 2h-1v-4h16v4h-1l-2-2h-3v11l2 2v1h-8v-1z"/>
<path fill="url(#b)" d="m304 115 1-1v-12h2v12l1 1h-4z"/>
</g>
</g>
<rect style="color:#000000" ry="0" height="8.006958" width="8.006964" stroke="#3465a4" stroke-linecap="square" stroke-dasharray="1, 2" y="138.493" x="288.493" fill="url(#d)"/>
<g transform="matrix(.362972 0 0 .362972 181.4162 103.3063)">
<path d="m302 115 2-2v-11h-3l-2 2h-1v-4h16v4h-1l-2-2h-3v11l2 2v1h-8v-1z"/>
<path fill="url(#b)" d="m304 115 1-1v-12h2v12l1 1h-4z"/>
</g>
</g>
</svg>
