<?xml version="1.0" encoding="UTF-8" standalone="no"?>
<svg xmlns:rdf="http://www.w3.org/1999/02/22-rdf-syntax-ns#" xmlns="http://www.w3.org/2000/svg" version="1.1" xmlns:cc="http://creativecommons.org/ns#" xmlns:xlink="http://www.w3.org/1999/xlink" viewBox="0 0 28 28" xmlns:dc="http://purl.org/dc/elements/1.1/">
<metadata>
<rdf:RDF>
<cc:Work rdf:about="">
<dc:format>image/svg+xml</dc:format>
<dc:type rdf:resource="http://purl.org/dc/dcmitype/StillImage"/>
</cc:Work>
</rdf:RDF>
</metadata>
<defs>
<linearGradient id="b" y2="16" gradientUnits="userSpaceOnUse" x2="8" y1="8" x1="4">
<stop stop-color="#5a5a5a" offset="0"/>
<stop offset="1"/>
</linearGradient>
<linearGradient id="a" y2="16" gradientUnits="userSpaceOnUse" x2="8" y1="8" x1="4">
<stop stop-color="#a2d3ff" offset="0"/>
<stop stop-color="#004c91" offset="1"/>
</linearGradient>
</defs>
<g stroke-width=".7px" transform="translate(0,2)">
<path fill="url(#b)" stroke="#000" d="m5.29 7.21h3.42l4.49 12.29h-2.8l-0.66-1.7h-5.48l-0.68 1.7h-2.738zm3.76 8.19-2.05-5.79-2.05 5.79z"/>
<path d="m5.8 7.9-4 10.9" stroke="#646464" stroke-linecap="round" fill="none"/>
<path d="m9.3 16.1h-4.6" stroke="#646464" stroke-linecap="round" fill="none"/>
</g>
<g stroke-width=".7px" transform="translate(14,-2)">
<path fill="url(#a)" stroke="#000" d="m5.29 7.21h3.42l4.49 12.29h-2.8l-0.66-1.7h-5.48l-0.68 1.7h-2.738zm3.76 8.19-2.05-5.79-2.05 5.79z"/>
<path d="m5.8 7.9-4 10.9" stroke="#b2dafe" stroke-linecap="round" fill="none"/>
<path d="m9.3 16.1h-4.6" stroke="#b2dafe" stroke-linecap="round" fill="none"/>
</g>
<g stroke-width="1.2px" stroke="#000" fill="none">
<path d="m14 2v24"/>
<path d="m0 22.4h14"/>
<path d="m14 18.4h14"/>
</g>
</svg>
