<?xml version="1.0" encoding="UTF-8" standalone="no"?>
<svg xmlns:rdf="http://www.w3.org/1999/02/22-rdf-syntax-ns#" xmlns="http://www.w3.org/2000/svg" version="1.1" xmlns:cc="http://creativecommons.org/ns#" xmlns:xlink="http://www.w3.org/1999/xlink" viewBox="0 0 16.000493 15.999457" xmlns:dc="http://purl.org/dc/elements/1.1/">
<metadata>
<rdf:RDF>
<cc:Work rdf:about="">
<dc:format>image/svg+xml</dc:format>
<dc:type rdf:resource="http://purl.org/dc/dcmitype/StillImage"/>
</cc:Work>
</rdf:RDF>
</metadata>
<defs>
<radialGradient id="a" cx="171.7755" gradientUnits="userSpaceOnUse" cy="153.063" r="7.469679" gradientTransform="matrix(1.122233,1.252981,-2.05495,1.830229,297.3402,-339.2527)">
<stop stop-color="#fff" offset="0"/>
<stop stop-color="#98b6d3" offset="1"/>
</radialGradient>
<linearGradient id="b" y2="255.5312" gradientUnits="userSpaceOnUse" x2="12.53125" y1="251.0312" x1="9.03125">
<stop stop-color="#5a5a5a" offset="0"/>
<stop offset="1"/>
</linearGradient>
</defs>
<g transform="matrix(.996399 0 0 .998404 -4.883163 -247.57129)">
<g transform="matrix(1 0 0 .997925 -.07212 .508745)">
<circle stroke-linejoin="round" style="color:#000000" stroke-width=".9403349" stroke-opacity=".2651297" stroke-linecap="round" transform="matrix(1.00786,0,0,1.007983,-167.1731,96.0569)" stroke="#000" cy="159" cx="179" stroke-miterlimit="0" r="7" fill="none"/>
<rect style="color:#000000" height="16" width="16" y="248.029" x="5.0273" fill="none"/>
<path fill-rule="evenodd" d="m18.03125 259-2.03125 2.0312 3 3 2.03125-2.0312-3-3z"/>
<circle stroke-linejoin="round" style="color:#000000" stroke-width=".9931717" fill-rule="evenodd" stroke-linecap="round" transform="matrix(1.00786,0,0,1.007983,-167.8785,95.25998)" stroke="#000" cy="159" cx="179" stroke-miterlimit="0" r="7" fill="url(#a)"/>
</g>
<g stroke-linecap="round">
<path stroke-linejoin="round" style="color:#000000" d="m9.53125 251.5312v4l5.92788-4.0391v8l-5.92788-3.9609v4-8z" fill-rule="evenodd" stroke="url(#b)" stroke-width="1.0026059" fill="#ffd400"/>
<path d="m11.33756 255.4455 3.2458-2.2227" stroke="#fff" stroke-width="1.0026058px" fill="none"/>
</g>
</g>
</svg>
